{
  "mapping": [
    {
      "source": {
        "path": "http://172.17.0.1/fileXLSX.xlsx",
        "data_type": "XLSX",
        "iterator": "Sheet1"
      },
      "identifier": "sawtooth_xlsx",
      "reference": [
        "Id->id",
        "name->user_name",
        "age->age",
        "address->address",
        "long->long",
        "height->height",
        "weight->weight",
        "phone->phone",
        "email->email"
      ],
      "function": [
        "user_name->str(user_name).upper()"
      ],
      "blockchain": "sawtooth"
    }
  ]
}