{
  "mapping": [
    {
      "source": {
        "path": "host:port/username/password/database",
        "data_type": "SQL",
        "iterator": "table"
      },
      "identifier": "sawtooth_mysql",
      "reference": [
        "Id->id",
        "name->user_name",
        "age->age",
        "address->address",
        "long->long",
        "height->height",
        "weight->weight",
        "phone->phone",
        "email->email"
      ],
      "function": [
        "user_name->str(user_name).upper()"
      ],
      "blockchain": "sawtooth"
    }
  ]
}